<?xml version="1.0" encoding="utf-8"?>
<!-- Generator: Adobe Illustrator 21.1.0, SVG Export Plug-In . SVG Version: 6.00 Build 0)  -->
<svg version="1.1" id="Layer_1" preserveAspectRatio="none" xmlns="http://www.w3.org/2000/svg" xmlns:xlink="http://www.w3.org/1999/xlink" x="0px" y="0px" viewBox="0 0 1383.1 306" width="1383.1" height="306" style="enable-background:new 0 0 1383.1 306;" xml:space="preserve">
<style type="text/css">
	.st0{clip-path:url(#SVGID_3_);}
	.st1{fill:url(#SVGID_4_);}
	.st2{fill:url(#SVGID_5_);}
	.st3{fill:url(#SVGID_6_);}
	.st4{fill:url(#SVGID_7_);}
	.st5{fill:url(#SVGID_8_);}
</style>
<g>
	<defs>
		<rect id="SVGID_1_" width="1383.1" height="306"/>
	</defs>
	<linearGradient id="SVGID_2_" gradientUnits="userSpaceOnUse" x1="2745.96" y1="135.5683" x2="-80.0401" y2="159.5683">
		<stop  offset="0.1481" style="stop-color:#FBC0A6"/>
		<stop  offset="0.1573" style="stop-color:#F7C0A7"/>
		<stop  offset="0.3771" style="stop-color:#C1C1C0"/>
		<stop  offset="0.5789" style="stop-color:#90C0D3"/>
		<stop  offset="0.7564" style="stop-color:#63BFE1"/>
		<stop  offset="0.9028" style="stop-color:#37BEEB"/>
		<stop  offset="1" style="stop-color:#11BEF0"/>
	</linearGradient>
	<use xlink:href="#SVGID_1_"  style="overflow:visible;fill:url(#SVGID_2_);"/>
	<clipPath id="SVGID_3_">
		<use xlink:href="#SVGID_1_"  style="overflow:visible;"/>
	</clipPath>
	<g class="st0">
		
			<linearGradient id="SVGID_4_" gradientUnits="userSpaceOnUse" x1="2845.2615" y1="2289.7236" x2="2544.5359" y2="419.8276" gradientTransform="matrix(0.723 -0.6909 0.6909 0.723 -2000.3029 943.8796)">
			<stop  offset="0.1481" style="stop-color:#FBC0A6"/>
			<stop  offset="0.1573" style="stop-color:#F7C0A7"/>
			<stop  offset="0.3771" style="stop-color:#C1C1C0"/>
			<stop  offset="0.5789" style="stop-color:#90C0D3"/>
			<stop  offset="0.7564" style="stop-color:#63BFE1"/>
			<stop  offset="0.9028" style="stop-color:#37BEEB"/>
			<stop  offset="1" style="stop-color:#11BEF0"/>
		</linearGradient>
		<path class="st1" d="M862.4,55.4c-44.6-7.6-98.2-31.7-153.5-60l0,0C441.9-135.2,249.7,151,173.8,293.5
			c11.6-16.5,22.6-26,31.6-29.8c39.5-17.1,146,39.8,231.6,85.5c159.5,85.2,358,191.3,588.6,131.4c42.8-11.1,82.7-27.1,119.5-47.9
			c69.5-39.2,128-95.5,174.9-168.3c52-80.8,82.9-170.6,112.8-257.3c28.9-83.9,55.4-160.7,97-226.5
			C1241.8,154.7,862.4,55.4,862.4,55.4z"/>
		
			<linearGradient id="SVGID_5_" gradientUnits="userSpaceOnUse" x1="2764.2358" y1="587.3217" x2="5883.3721" y2="587.3217" gradientTransform="matrix(0.8708 -0.4917 0.4917 0.8708 -4735.9165 2318.3516)">
			<stop  offset="0.1481" style="stop-color:#FBC0A6"/>
			<stop  offset="0.1573" style="stop-color:#F7C0A7"/>
			<stop  offset="0.3771" style="stop-color:#C1C1C0"/>
			<stop  offset="0.5789" style="stop-color:#90C0D3"/>
			<stop  offset="0.7564" style="stop-color:#63BFE1"/>
			<stop  offset="0.9028" style="stop-color:#37BEEB"/>
			<stop  offset="1" style="stop-color:#11BEF0"/>
		</linearGradient>
		<path class="st2" d="M708.9-4.6L708.9-4.6c-21.5-11-43.2-22.6-64.7-34.1C563.9-81.6,480.8-126,389.3-153.4
			c-128.5-38.5-249.2-33.9-358.7,13.5C-104.6-81.3-205.2,32.2-268.3,197.5c-38.8,101.8-63.1,221.5-74.1,366
			c-9.3,121.1,81.4,226.8,202.5,236c121.1,9.2,226.8-81.4,236-202.5c7.9-102.9,23.7-177.1,41.8-229.1l0,0c0,0,0-0.1,0.1-0.1
			c11.5-33.2,24-57.4,35.8-74.2C249.7,151,441.9-135.2,708.9-4.6z"/>
		<linearGradient id="SVGID_6_" gradientUnits="userSpaceOnUse" x1="-265.7915" y1="969.7638" x2="548.2084" y2="-506.2362">
			<stop  offset="0.1481" style="stop-color:#FBC0A6"/>
			<stop  offset="0.1573" style="stop-color:#F7C0A7"/>
			<stop  offset="0.3771" style="stop-color:#C1C1C0"/>
			<stop  offset="0.5789" style="stop-color:#90C0D3"/>
			<stop  offset="0.7564" style="stop-color:#63BFE1"/>
			<stop  offset="0.9028" style="stop-color:#37BEEB"/>
			<stop  offset="1" style="stop-color:#11BEF0"/>
		</linearGradient>
		<path class="st3" d="M708.9-4.6L708.9-4.6c-21.5-11-43.2-22.6-64.7-34.1C563.9-81.6,480.8-126,389.3-153.4
			c-128.5-38.5-249.2-33.9-358.7,13.5C-104.6-81.3-205.2,32.2-268.3,197.5c-38.8,101.8-63.1,221.5-74.1,366
			c-9.3,121.1,81.4,226.8,202.5,236c121.1,9.2,226.8-81.4,236-202.5c7.9-102.9,23.7-177.1,41.8-229.1l0,0c0,0,0-0.1,0.1-0.1
			c11.5-33.2,24-57.4,35.8-74.2C249.7,151,441.9-135.2,708.9-4.6z"/>
		
			<linearGradient id="SVGID_7_" gradientUnits="userSpaceOnUse" x1="5987.564" y1="715.8339" x2="9187.8359" y2="715.8339" gradientTransform="matrix(0.8708 -0.4917 0.4917 0.8708 -4735.9165 2318.3516)">
			<stop  offset="0.1481" style="stop-color:#FBC0A6"/>
			<stop  offset="0.1573" style="stop-color:#F7C0A7"/>
			<stop  offset="0.3771" style="stop-color:#C1C1C0"/>
			<stop  offset="0.5789" style="stop-color:#90C0D3"/>
			<stop  offset="0.7564" style="stop-color:#63BFE1"/>
			<stop  offset="0.9028" style="stop-color:#37BEEB"/>
			<stop  offset="1" style="stop-color:#11BEF0"/>
		</linearGradient>
		<path class="st4" d="M2110-399.5c52.4,9.3,103.7-0.7,146.6-24.9c55.1-31.1,96.5-85.8,108.5-153c21.3-119.6-58.4-233.8-177.9-255.1
			c-334.8-59.6-613.4-6.7-828.2,157.4c-212.3,162.2-287.3,380-342.1,539C966.3,10.8,947.3,46.6,915,54.9c-15.4,4-33.1,3.8-52.6,0.5
			c0,0,379.4,99.3,667.3-274.8c25.2-39.8,56-75.5,96.2-106.2C1738.8-411.7,1901.6-436.6,2110-399.5z"/>
		
			<linearGradient id="SVGID_8_" gradientUnits="userSpaceOnUse" x1="2683.5293" y1="1551.9076" x2="4297.1743" y2="1551.9076" gradientTransform="matrix(0.723 -0.6909 0.6909 0.723 -2000.3029 943.8796)">
			<stop  offset="0.1481" style="stop-color:#FBC0A6"/>
			<stop  offset="0.1573" style="stop-color:#F7C0A7"/>
			<stop  offset="0.3771" style="stop-color:#C1C1C0"/>
			<stop  offset="0.5789" style="stop-color:#90C0D3"/>
			<stop  offset="0.7564" style="stop-color:#63BFE1"/>
			<stop  offset="0.9028" style="stop-color:#37BEEB"/>
			<stop  offset="1" style="stop-color:#11BEF0"/>
		</linearGradient>
		<path class="st5" d="M2110-399.5c52.4,9.3,103.7-0.7,146.6-24.9c55.1-31.1,96.5-85.8,108.5-153c21.3-119.6-58.4-233.8-177.9-255.1
			c-334.8-59.6-613.4-6.7-828.2,157.4c-212.3,162.2-287.3,380-342.1,539C966.3,10.8,947.3,46.6,915,54.9c-15.4,4-33.1,3.8-52.6,0.5
			c0,0,379.4,99.3,667.3-274.8c25.2-39.8,56-75.5,96.2-106.2C1738.8-411.7,1901.6-436.6,2110-399.5z"/>
	</g>
</g>
</svg>
