<?xml version="1.0" encoding="utf-8"?>
<!-- Generator: Adobe Illustrator 21.1.0, SVG Export Plug-In . SVG Version: 6.00 Build 0)  -->
<svg version="1.1" id="Layer_2" preserveAspectRatio="none" xmlns="http://www.w3.org/2000/svg" xmlns:xlink="http://www.w3.org/1999/xlink" x="0px" y="0px"
	 viewBox="0 0 1384.5 403.3" width="1384.5" height="403.3" style="enable-background:new 0 0 1384.5 403.3;" xml:space="preserve">
<style type="text/css">
	.st0{clip-path:url(#SVGID_2_);}
	.st1{fill:url(#SVGID_3_);}
	.st2{fill:url(#SVGID_4_);}
	.st3{fill:url(#SVGID_5_);}
</style>
<g>
	<g>
		<defs>
			<rect id="SVGID_1_" width="1384.5" height="403.3"/>
		</defs>
		<clipPath id="SVGID_2_">
			<use xlink:href="#SVGID_1_"  style="overflow:visible;"/>
		</clipPath>
		<g class="st0">
			
				<linearGradient id="SVGID_3_" gradientUnits="userSpaceOnUse" x1="2292.7834" y1="7106.1514" x2="4135.6152" y2="6042.1919" gradientTransform="matrix(0.882 0.4712 -0.4712 0.882 581.7831 -7277.3062)">
				<stop  offset="0.2236" style="stop-color:#FBC0A6"/>
				<stop  offset="0.2796" style="stop-color:#EFC0AB"/>
				<stop  offset="0.3798" style="stop-color:#D4C1B8"/>
				<stop  offset="0.5126" style="stop-color:#A2C0CC"/>
				<stop  offset="0.6713" style="stop-color:#3FBEE9"/>
				<stop  offset="0.6942" style="stop-color:#11BEF0"/>
			</linearGradient>
			<path class="st1" d="M921.4,242c-123.9-90.7-264.9-142.9-408-150.9c-133.7-7.6-256.9,24.3-356.4,92.1
				c-78.4,53.4-140.9,129-186,225c-20.8,44.4-37.8,93.5-49,141.5l0,0c0,0,198.7-995.9,733.3-1026.1
				c150.3,21.6,299.9,70.1,440.6,145.5c57.5,30.8,113.7,66,167.8,105.5c129.1,94.6,157.2,275.8,62.6,404.9
				C1231.9,308.6,1050.5,336.6,921.4,242z"/>
			
				<linearGradient id="SVGID_4_" gradientUnits="userSpaceOnUse" x1="2502.4824" y1="6797.2876" x2="4173.3872" y2="6797.2876" gradientTransform="matrix(0.882 0.4712 -0.4712 0.882 581.7831 -7277.3062)">
				<stop  offset="0.2236" style="stop-color:#FBC0A6"/>
				<stop  offset="0.3129" style="stop-color:#F7C0A7"/>
				<stop  offset="0.3853" style="stop-color:#EDC0AB"/>
				<stop  offset="0.4517" style="stop-color:#DEC0B3"/>
				<stop  offset="0.5146" style="stop-color:#C9C1BD"/>
				<stop  offset="0.575" style="stop-color:#AAC0C9"/>
				<stop  offset="0.6335" style="stop-color:#7FBFD9"/>
				<stop  offset="0.6895" style="stop-color:#2ABEED"/>
				<stop  offset="0.6942" style="stop-color:#11BEF0"/>
			</linearGradient>
			<path class="st2" d="M-78,549.6L-78,549.6c-2.9,12.3-5.3,24.3-7.5,36.3c-27.4,157.6-177.4,263.3-335.1,235.8
				c-157.6-27.4-263.3-177.4-235.8-335.1c19.1-109.9,54.7-222.2,102.8-324.7c39.7-84.6,88.2-163.2,144.1-233.8
				c69-87.1,149.9-162.4,240.4-224C70.7-459,364.6-518.4,655.3-476.5C120.7-446.3-78,549.6-78,549.6z"/>
			
				<linearGradient id="SVGID_5_" gradientUnits="userSpaceOnUse" x1="3134.7415" y1="5344.8594" x2="2673.1128" y2="7962.8853" gradientTransform="matrix(0.882 0.4712 -0.4712 0.882 581.7831 -7277.3062)">
				<stop  offset="0.2236" style="stop-color:#FBC0A6"/>
				<stop  offset="0.354" style="stop-color:#C8C1BD"/>
				<stop  offset="0.5147" style="stop-color:#86BFD7"/>
				<stop  offset="0.6327" style="stop-color:#4ABEE7"/>
				<stop  offset="0.6942" style="stop-color:#11BEF0"/>
			</linearGradient>
			<path class="st3" d="M-78,549.6L-78,549.6c-2.9,12.3-5.3,24.3-7.5,36.3c-27.4,157.6-177.4,263.3-335.1,235.8
				c-157.6-27.4-263.3-177.4-235.8-335.1c19.1-109.9,54.7-222.2,102.8-324.7c39.7-84.6,88.2-163.2,144.1-233.8
				c69-87.1,149.9-162.4,240.4-224C70.7-459,364.6-518.4,655.3-476.5C120.7-446.3-78,549.6-78,549.6z"/>
		</g>
	</g>
</g>
</svg>
