<?xml version="1.0" encoding="utf-8"?>
<!-- Generator: Adobe Illustrator 21.1.0, SVG Export Plug-In . SVG Version: 6.00 Build 0)  -->
<svg version="1.1" id="Layer_1" preserveAspectRatio="meet" xmlns="http://www.w3.org/2000/svg" xmlns:xlink="http://www.w3.org/1999/xlink" x="0px" y="0px"
	 viewBox="0 0 1319.8 670.3" width="1319.8" height="670.3" style="enable-background:new 0 0 1319.8 670.3;" xml:space="preserve">
<style type="text/css">
	.st0{clip-path:url(#SVGID_2_);}
	.st1{fill:url(#SVGID_3_);}
	.st2{fill:url(#SVGID_4_);}
	.st3{fill:url(#SVGID_5_);}
	.st4{fill:url(#SVGID_6_);}
	.st5{fill:url(#SVGID_7_);}
</style>
<g>
	<defs>
		<rect id="SVGID_1_" x="5.1" width="1314.7" height="670.3"/>
	</defs>
	<clipPath id="SVGID_2_">
		<use xlink:href="#SVGID_1_"  style="overflow:visible;"/>
	</clipPath>
	<g class="st0">
		
			<linearGradient id="SVGID_3_" gradientUnits="userSpaceOnUse" x1="-241.5337" y1="2710.3999" x2="-440.0301" y2="1476.1594" gradientTransform="matrix(0.951 0.3091 0.3091 -0.951 574.7441 2402.061)">
			<stop  offset="0.1481" style="stop-color:#FBC0A6"/>
			<stop  offset="0.1573" style="stop-color:#F7C0A7"/>
			<stop  offset="0.3771" style="stop-color:#C1C1C0"/>
			<stop  offset="0.5789" style="stop-color:#90C0D3"/>
			<stop  offset="0.7564" style="stop-color:#63BFE1"/>
			<stop  offset="0.9028" style="stop-color:#37BEEB"/>
			<stop  offset="1" style="stop-color:#11BEF0"/>
		</linearGradient>
		<path class="st1" d="M886.6,315.8c-24.3,17.3-49.3,46.9-74.2,79.6h0c-121.4,154.1-317.7,38.8-403.6-24.2c11.6,6.5,20.9,9,27.3,8.7
			c28.4-1.1,75.5-65.4,113.3-117.1c70.5-96.3,158.2-216.2,312.5-246.6c28.7-5.6,57-7.5,84.8-5.7c52.5,3.5,103.5,20.2,152.2,50.1
			c54.1,33.2,98.1,77.7,140.8,120.8c41.2,41.7,78.9,79.8,122.5,106.9C1083.9,148.2,886.6,315.8,886.6,315.8z"/>
		
			<linearGradient id="SVGID_4_" gradientUnits="userSpaceOnUse" x1="1057.7163" y1="2104.8049" x2="3116.5283" y2="2104.8049" gradientTransform="matrix(0.9978 6.554306e-02 6.554306e-02 -0.9978 -2438.197 2335.5479)">
			<stop  offset="0" style="stop-color:#11BEF0"/>
			<stop  offset="0.1055" style="stop-color:#30BDE9"/>
			<stop  offset="0.2444" style="stop-color:#55BDDC"/>
			<stop  offset="0.402" style="stop-color:#79BCC7"/>
			<stop  offset="0.5734" style="stop-color:#9EBAAB"/>
			<stop  offset="0.7559" style="stop-color:#C5B786"/>
			<stop  offset="0.945" style="stop-color:#EDB156"/>
			<stop  offset="1" style="stop-color:#FAAF43"/>
		</linearGradient>
		<path class="st2" d="M812.5,395.4L812.5,395.4c-9.6,12.7-19.2,25.8-28.7,38.8c-35.5,48.5-72.2,98.7-118.8,141.2
			C599.5,635,526.4,666.9,447.7,670c-97.2,3.9-189.5-34.9-274.3-115.1C121.2,505.4,72.5,441.2,24.6,358.3
			C-15.5,289,8.2,200.2,77.5,160c69.4-40.2,158.2-16.5,198.3,52.9c34.1,58.9,64.8,98.5,90.4,124.3l0,0c0,0,0,0,0.1,0.1
			c16.4,16.5,30.7,27.3,42.5,33.9C494.8,434.3,691.1,549.5,812.5,395.4z"/>
		
			<linearGradient id="SVGID_5_" gradientUnits="userSpaceOnUse" x1="2293.6013" y1="2104.8049" x2="3649.6785" y2="2104.8049" gradientTransform="matrix(0.9978 6.554306e-02 6.554306e-02 -0.9978 -2438.197 2335.5479)">
			<stop  offset="0" style="stop-color:#11BEF0"/>
			<stop  offset="0.1607" style="stop-color:#57BEE4"/>
			<stop  offset="0.4944" style="stop-color:#A0C0CD"/>
			<stop  offset="0.9693" style="stop-color:#F4C0A8"/>
			<stop  offset="1" style="stop-color:#FBC0A6"/>
		</linearGradient>
		<path class="st3" d="M812.5,395.4L812.5,395.4c-9.6,12.7-19.2,25.8-28.7,38.8c-35.5,48.5-72.2,98.7-118.8,141.2
			C599.5,635,526.4,666.9,447.7,670c-97.2,3.9-189.5-34.9-274.3-115.1C121.2,505.4,72.5,441.2,24.6,358.3
			C-15.5,289,8.2,200.2,77.5,160c69.4-40.2,158.2-16.5,198.3,52.9c34.1,58.9,64.8,98.5,90.4,124.3l0,0c0,0,0,0,0.1,0.1
			c16.4,16.5,30.7,27.3,42.5,33.9C494.8,434.3,691.1,549.5,812.5,395.4z"/>
		
			<linearGradient id="SVGID_6_" gradientUnits="userSpaceOnUse" x1="3185.3008" y1="2189.6306" x2="5297.667" y2="2189.6306" gradientTransform="matrix(0.9978 6.554306e-02 6.554306e-02 -0.9978 -2438.197 2335.5479)">
			<stop  offset="0" style="stop-color:#11BEF0"/>
			<stop  offset="0.1055" style="stop-color:#30BDE9"/>
			<stop  offset="0.2444" style="stop-color:#55BDDC"/>
			<stop  offset="0.402" style="stop-color:#79BCC7"/>
			<stop  offset="0.5734" style="stop-color:#9EBAAB"/>
			<stop  offset="0.7559" style="stop-color:#C5B786"/>
			<stop  offset="0.945" style="stop-color:#EDB156"/>
			<stop  offset="1" style="stop-color:#FAAF43"/>
		</linearGradient>
		<path class="st4" d="M1758.9,229.3c28.5-20.5,61.8-29.3,94.3-27.1c41.7,2.7,81.9,23.4,108.3,60c46.9,65,32.2,155.7-32.8,202.6
			c-182,131.3-362.9,179.5-537.6,143.4c-172.7-35.7-279.6-143.8-357.7-222.7c-72.2-72.9-93.7-88.7-115.3-84.5
			c-10.3,2-20.8,7.2-31.4,14.8c0,0,197.2-167.6,475.6-27.5c26.4,16.4,54.9,28.9,87.6,35.7C1541.6,342.9,1645.6,311.1,1758.9,229.3z"
			/>
		
			<linearGradient id="SVGID_7_" gradientUnits="userSpaceOnUse" x1="-348.2863" y1="2223.3982" x2="716.8136" y2="2223.3982" gradientTransform="matrix(0.951 0.3091 0.3091 -0.951 574.7441 2402.061)">
			<stop  offset="0" style="stop-color:#FBC0A6"/>
			<stop  offset="5.156130e-02" style="stop-color:#E4C0B0"/>
			<stop  offset="0.1468" style="stop-color:#C0C1C0"/>
			<stop  offset="0.2489" style="stop-color:#9EC0CE"/>
			<stop  offset="0.3577" style="stop-color:#7EBFD9"/>
			<stop  offset="0.4753" style="stop-color:#5FBEE2"/>
			<stop  offset="0.6062" style="stop-color:#42BEE9"/>
			<stop  offset="0.761" style="stop-color:#24BEEE"/>
			<stop  offset="1" style="stop-color:#11BEF0"/>
		</linearGradient>
		<path class="st5" d="M1758.9,229.3c28.5-20.5,61.8-29.3,94.3-27.1c41.7,2.7,81.9,23.4,108.3,60c46.9,65,32.2,155.7-32.8,202.6
			c-182,131.3-362.9,179.5-537.6,143.4c-172.7-35.7-279.6-143.8-357.7-222.7c-72.2-72.9-93.7-88.7-115.3-84.5
			c-10.3,2-20.8,7.2-31.4,14.8c0,0,197.2-167.6,475.6-27.5c26.4,16.4,54.9,28.9,87.6,35.7C1541.6,342.9,1645.6,311.1,1758.9,229.3z"
			/>
	</g>
</g>
</svg>
